ProjetoCompleto/simulation/qsim/projetocompleto.msim.vcd
$comment
	File created using the following command:
		vcd file projetocompleto.msim.vcd -direction
$end
$date
	Thu May 12 22:19:55 2022
$end
$version
	ModelSim Version 10.5b
$end
$timescale
	1ps
$end

$scope module projetocompleto_vlg_vec_tst $end
$var reg 1 ! CLOCK_A $end
$var reg 1 " CLOCK_B $end
$var reg 1 # S0 $end
$var reg 1 $ S1 $end
$var wire 1 % Q0 $end
$var wire 1 & Q1 $end
$var wire 1 ' Q2 $end
$var wire 1 ( SEG_A $end
$var wire 1 ) SEG_B $end
$var wire 1 * SEG_C $end
$var wire 1 + SEG_D $end
$var wire 1 , SEG_E $end
$var wire 1 - SEG_F $end
$var wire 1 . SEG_G $end
$var wire 1 / Y0 $end
$var wire 1 0 Y1 $end
$var wire 1 1 Y2 $end

$scope module i1 $end
$var wire 1 2 gnd $end
$var wire 1 3 vcc $end
$var wire 1 4 unknown $end
$var tri1 1 5 devclrn $end
$var tri1 1 6 devpor $end
$var tri1 1 7 devoe $end
$var wire 1 8 ~QUARTUS_CREATED_GND~I_combout $end
$var wire 1 9 ~QUARTUS_CREATED_UNVM~~busy $end
$var wire 1 : ~QUARTUS_CREATED_ADC1~~eoc $end
$var wire 1 ; ~QUARTUS_CREATED_ADC2~~eoc $end
$var wire 1 < SEG_A~output_o $end
$var wire 1 = Q0~output_o $end
$var wire 1 > Q1~output_o $end
$var wire 1 ? Q2~output_o $end
$var wire 1 @ SEG_B~output_o $end
$var wire 1 A SEG_C~output_o $end
$var wire 1 B SEG_D~output_o $end
$var wire 1 C SEG_E~output_o $end
$var wire 1 D SEG_F~output_o $end
$var wire 1 E SEG_G~output_o $end
$var wire 1 F Y2~output_o $end
$var wire 1 G Y1~output_o $end
$var wire 1 H Y0~output_o $end
$var wire 1 I S1~input_o $end
$var wire 1 J S0~input_o $end
$var wire 1 K inst|inst11~combout $end
$var wire 1 L inst|inst10~combout $end
$var wire 1 M inst1|inst29~1_combout $end
$var wire 1 N CLOCK_A~input_o $end
$var wire 1 O CLOCK_B~input_o $end
$var wire 1 P inst2|inst~1_combout $end
$var wire 1 Q inst2|inst~1clkctrl_outclk $end
$var wire 1 R inst1|inst13~0_combout $end
$var wire 1 S inst|inst2~0_combout $end
$var wire 1 T inst|inst2~0clkctrl_outclk $end
$var wire 1 U inst1|inst28~q $end
$var wire 1 V inst1|inst27~1_combout $end
$var wire 1 W inst1|inst27~q $end
$var wire 1 X inst1|inst29~7_combout $end
$var wire 1 Y inst1|inst29~3_combout $end
$var wire 1 Z inst1|inst29~0_combout $end
$var wire 1 [ inst1|inst29~_emulated_q $end
$var wire 1 \ inst1|inst29~2_combout $end
$var wire 1 ] inst3|80~0_combout $end
$var wire 1 ^ inst3|81~0_combout $end
$var wire 1 _ inst3|82~0_combout $end
$var wire 1 ` inst3|83~0_combout $end
$var wire 1 a inst3|84~0_combout $end
$var wire 1 b inst3|85~0_combout $end
$var wire 1 c inst3|86~0_combout $end
$var wire 1 d inst1|inst21~0_combout $end
$var wire 1 e inst1|inst27~0_combout $end
$var wire 1 f inst1|inst25~0_combout $end
$upscope $end
$upscope $end
$enddefinitions $end
#0
$dumpvars
0!
1"
0#
0$
1%
0&
1'
0(
1)
0*
0+
1,
0-
0.
0/
10
11
02
13
x4
15
16
17
08
z9
z:
z;
0<
1=
0>
1?
1@
0A
0B
1C
0D
0E
1F
1G
0H
0I
0J
0K
0L
1M
0N
1O
1P
1Q
0R
1S
1T
0U
0V
0W
0X
1Y
1Z
0[
1\
1]
0^
1_
1`
0a
1b
1c
1d
0e
1f
$end
#20000
1!
0"
0O
1N
0P
0Q
#40000
0!
1"
1O
0N
1P
1Q
#60000
1!
0"
0O
1N
0P
0Q
#80000
1#
0!
1"
1O
0N
1J
1P
1X
0S
1L
0T
1Q
1V
0Z
#100000
1!
0"
0O
1N
0P
0Q
#120000
0!
1"
1O
0N
1P
1Q
1[
1W
0?
0f
1e
0c
0b
0`
1^
0]
0'
0\
0d
0Y
1R
0F
0=
1<
0@
1B
1D
1E
0G
1H
1b
1a
1`
1]
1/
00
1.
1-
1+
0)
1(
0%
01
1Y
0<
0B
0C
0D
0-
0,
0+
0(
#140000
1!
0"
0O
1N
0P
0Q
#160000
0!
1"
1O
0N
1P
1Q
1U
1>
0e
1c
0b
0_
0X
1&
1A
1D
0E
1G
10
0.
1-
1*
0Y
#180000
1!
0"
0O
1N
0P
0Q
#200000
0!
1"
1O
0N
1P
1Q
0[
0U
0>
1e
0c
1b
1_
1X
0&
1\
1=
0A
0D
1E
0G
0b
0a
0`
0]
00
1.
0-
0*
1%
1<
1B
1C
1D
1-
1,
1+
1(
#220000
1!
0"
0O
1N
0P
0Q
#240000
0!
1"
1O
0N
1P
1Q
1U
1>
1f
0e
1c
1`
1]
0X
1&
0V
0<
0B
0E
1G
0H
0/
10
0.
0+
0(
1Y
#260000
1!
0"
0O
1N
0P
0Q
#280000
0!
1"
1O
0N
1P
1Q
1[
0W
0U
0>
1?
1b
0^
1X
1'
0&
0\
1d
1V
0R
1F
0=
1@
0D
0`
1^
0]
0-
1)
0%
11
0Y
0d
0V
0F
1<
0@
1B
1+
0)
1(
01
#300000
1!
0"
0O
1N
0P
0Q
#320000
0!
1"
1O
0N
1P
1Q
0[
1\
1=
1`
0^
1]
1%
1d
1Y
1V
1F
0<
1@
0B
0+
1)
0(
11
#340000
1!
0"
0O
1N
0P
0Q
#360000
0!
1"
1O
0N
1P
1Q
1[
1W
0?
0f
1e
0c
0b
0`
1^
0]
0'
0\
0d
0Y
1R
0F
0=
1<
0@
1B
1D
1E
0G
1H
1b
1a
1`
1]
1/
00
1.
1-
1+
0)
1(
0%
01
1Y
0<
0B
0C
0D
0-
0,
0+
0(
#380000
1!
0"
0O
1N
0P
0Q
#400000
1$
0!
1"
1O
0N
1I
1P
1S
1K
1T
1Q
1Z
0M
0Y
0[
0W
1?
1f
0e
1c
0a
0`
0]
1'
1Y
0V
0R
1<
1B
1C
0E
1G
0H
0/
10
0.
1,
1+
1(
#420000
1!
0"
0O
1N
0P
0Q
#440000
0#
0!
1"
1O
0N
0J
1P
0X
0S
0K
0T
1Q
1V
1R
0Z
#460000
1!
0"
0O
1N
0P
0Q
#480000
0!
1"
1O
0N
1P
1Q
1[
1W
1U
1>
0?
0f
0b
1a
1`
0_
1]
1X
0'
1&
1\
0R
1=
0<
1A
0B
0C
1D
1H
1f
0a
1_
1/
1-
0,
0+
1*
0(
1%
1R
0A
1C
0H
0/
1,
0*
#500000
1!
0"
0O
1N
0P
0Q
#520000
0!
1"
1O
0N
1P
1Q
0U
0>
0f
1e
0c
0`
0]
0X
0&
1<
1B
1E
0G
1H
1/
00
1.
1+
1(
0Y
#540000
1!
0"
0O
1N
0P
0Q
#560000
0!
1"
1O
0N
1P
1Q
0[
1U
1>
1f
0e
1c
1`
1]
1X
1&
0\
0=
0<
0B
0E
1G
0H
0f
1a
0_
0/
10
0.
0+
0(
0%
0R
1A
0C
1H
1/
0,
1*
#580000
1!
0"
0O
1N
0P
0Q
#600000
0!
1"
1O
0N
1P
1Q
0U
0>
1e
0c
1b
1_
0X
0&
0V
0A
0D
1E
0G
00
1.
0-
0*
1Y
#620000
1!
0"
0O
1N
0P
0Q
#640000
0!
1"
1O
0N
1P
1Q
1[
0W
1?
1f
0e
1c
0a
0`
0]
1'
1\
1V
1R
1=
1<
1B
1C
0E
1G
0H
1`
0^
1]
0/
10
0.
1,
1+
1(
1%
1d
0Y
0V
0R
1F
0<
1@
0B
0+
1)
0(
11
#660000
1!
0"
0O
1N
0P
0Q
#680000
0!
1"
1O
0N
1P
1Q
0[
0\
0=
0`
1^
0]
0%
0d
1Y
1V
1R
0F
1<
0@
1B
1+
0)
1(
01
#700000
1!
0"
0O
1N
0P
0Q
#720000
0!
1"
1O
0N
1P
1Q
1[
1W
1U
1>
0?
0f
0b
1a
1`
0_
1]
1X
0'
1&
1\
0R
1=
0<
1A
0B
0C
1D
1H
1f
0a
1_
1/
1-
0,
0+
1*
0(
1%
1R
0A
1C
0H
0/
1,
0*
#740000
1!
0"
0O
1N
0P
0Q
#760000
0!
1"
1O
0N
1P
1Q
0U
0>
0f
1e
0c
0`
0]
0X
0&
1<
1B
1E
0G
1H
1/
00
1.
1+
1(
0Y
#780000
1!
0"
0O
1N
0P
0Q
#800000
0!
1"
1O
0N
1P
1Q
0[
1U
1>
1f
0e
1c
1`
1]
1X
1&
0\
0=
0<
0B
0E
1G
0H
0f
1a
0_
0/
10
0.
0+
0(
0%
0R
1A
0C
1H
1/
0,
1*
#820000
1!
0"
0O
1N
0P
0Q
#840000
0!
1"
1O
0N
1P
1Q
0U
0>
1e
0c
1b
1_
0X
0&
0V
0A
0D
1E
0G
00
1.
0-
0*
1Y
#860000
1!
0"
0O
1N
0P
0Q
#880000
0!
1"
1O
0N
1P
1Q
1[
0W
1?
1f
0e
1c
0a
0`
0]
1'
1\
1V
1R
1=
1<
1B
1C
0E
1G
0H
1`
0^
1]
0/
10
0.
1,
1+
1(
1%
1d
0Y
0V
0R
1F
0<
1@
0B
0+
1)
0(
11
#900000
1!
0"
0O
1N
0P
0Q
#920000
0!
1"
1O
0N
1P
1Q
0[
0\
0=
0`
1^
0]
0%
0d
1Y
1V
1R
0F
1<
0@
1B
1+
0)
1(
01
#940000
1!
0"
0O
1N
0P
0Q
#960000
0$
0!
1"
1O
0N
0I
1P
1S
0L
1T
1Q
1Z
1M
1\
1=
1`
0^
1]
1%
1d
0V
0R
1F
0<
1@
0B
0+
1)
0(
11
#980000
1!
0"
0O
1N
0P
0Q
